<?xml version="1.0" encoding="iso-8859-1"?>
<!-- Generator: Adobe Illustrator 16.0.4, SVG Export Plug-In . SVG Version: 6.00 Build 0)  -->
<!DOCTYPE svg PUBLIC "-//W3C//DTD SVG 1.1//EN" "http://www.w3.org/Graphics/SVG/1.1/DTD/svg11.dtd">
<svg version="1.1" id="Layer_1" xmlns="http://www.w3.org/2000/svg" xmlns:xlink="http://www.w3.org/1999/xlink" x="0px" y="0px"
	 width="80px" height="80px" viewBox="0 0 80 80" style="enable-background:new 0 0 80 80;" xml:space="preserve">
<rect style="fill:none;" width="80" height="80"/>
<path style="opacity:0.35;" d="M74.576,38.426c0-1.154-4.991-15.157-7.207-19.361c-0.47-0.893-1.349-1.598-2.099-2.002
	c-0.44-0.239-0.772-0.384-0.772-0.384s3.798,3.893-0.549,6.979c-7.634,5.422-20.966,8.577-23.066,9.05l-0.004,0
	c-0.01,0.002-0.018,0.004-0.029,0.008c-0.164,0.037-0.26,0.057-0.26,0.057c0.003,0.003,0.008,0.008,0.012,0.011
	c-1.145,0.304-2.142,0.722-3.008,1.222l-2.759-1.45l-4.451,7.629c0.81-1.493,1.467-2.68,1.861-3.352
	c2.311-3.923,2.247-4.433,2.247-4.433c-10.418-3.733-9.446-3.561-16.337-6.528c-6.699-2.884-5.083-8.652-5.083-8.652
	c-2.779,1.835-6.929,16.382-8.778,22.612c-1.848,6.23,14.553,22.152,14.553,22.152s5.473-10.477,9.529-18.071l3.408,1.006
	c0.023,0.212,0.088,0.421,0.259,0.421c5.71,1.295,14.364,0.113,16.374-0.19l9.757,16.583C61.64,58.731,75.039,42.35,74.576,38.426z"
	/>
<linearGradient id="SVGID_1_" gradientUnits="userSpaceOnUse" x1="11.792" y1="21.9043" x2="66.8926" y2="21.9043">
	<stop  offset="0" style="stop-color:#D5D7D8"/>
	<stop  offset="0.1822" style="stop-color:#FFFFFF"/>
	<stop  offset="0.8283" style="stop-color:#EFF0F0"/>
	<stop  offset="1" style="stop-color:#C2C2C2"/>
</linearGradient>
<path style="fill:url(#SVGID_1_);stroke:#000000;stroke-width:0.935;stroke-miterlimit:10;" d="M12.946,14.69
	c5.111-3.375,13.167-3.692,25.642-3.692c12.473,0,26.21,0.89,28.28,5.351c0,0,1.867,15.993-26.2,16.454
	c-13.282,0.219-23.908-4.269-26.103-8.076l-2.772-6.576L12.946,14.69"/>
<path style="fill:#939598;stroke:#000000;stroke-width:0.935;stroke-miterlimit:10;" d="M25.734,26.485
	c0,0,7.873-0.468,12.557-0.468c4.683,0,15.37,0.354,15.37,0.354l-0.752,0.957l-12.088,4.4l-6.298,0.754l-4.666-2.439L25.734,26.485z
	"/>
<polygon style="fill:#FFFFFF;stroke:#000000;stroke-width:0.935;stroke-miterlimit:10;" points="37.664,31.58 31.917,42.466 
	28.105,41.34 34.708,30.026 "/>
<path style="fill:#FFFFFF;stroke:#000000;stroke-width:0.935;stroke-miterlimit:10;" d="M48.722,42.552c0,0-10.308,1.73-16.805,0.26
	c-0.347,0-0.26-0.865-0.26-0.865s-0.087-9.536,9.095-11.768l9.926,3.94L48.722,42.552"/>
<circle style="fill:none;stroke:#000000;stroke-width:0.935;stroke-miterlimit:10;" cx="39.15" cy="37.886" r="2.598"/>
<circle style="fill:none;stroke:#000000;stroke-width:0.935;stroke-miterlimit:10;" cx="39.149" cy="37.886" r="1.169"/>
<path style="fill:#FFFFFF;stroke:#000000;stroke-width:0.935;stroke-miterlimit:10;" d="M67.243,16.537
	c2.215,4.204,7.205,18.207,7.205,19.361c0.463,3.922-12.935,20.306-16.399,23.305L43.149,33.877c0,0-1.819-2.941-2.686-3.634
	c0,0,15.059-3.217,23.359-9.115c4.345-3.087,0.55-6.98,0.55-6.98s0.33,0.147,0.772,0.385C65.894,14.938,66.771,15.644,67.243,16.537
	z"/>
<path style="fill:#FFFFFF;stroke:#000000;stroke-width:0.935;stroke-miterlimit:10;" d="M34.367,29.871c0,0,0.063,0.51-2.247,4.433
	c-2.311,3.922-13.399,25.149-13.399,25.149S2.32,43.533,4.168,37.303c1.848-6.23,5.998-20.777,8.777-22.613
	c0,0-1.616,5.768,5.083,8.652C24.92,26.31,23.947,26.138,34.367,29.871z"/>
<path style="fill:none;stroke:#939598;stroke-width:0.7254;stroke-miterlimit:10;" d="M4.657,35.325c0,0,1.528,8.784,13.32,19.73
	c6.5-12.246,12.087-24.6,13.121-26.075"/>
<path style="fill:none;stroke:#939598;stroke-width:0.7254;stroke-miterlimit:10;" d="M43.653,29.624l15.276,25.54
	c0,0,6.935-7.466,9.534-11.362c2.601-3.896,4.659-7.684,4.875-11.147"/>
<path style="fill:none;stroke:#939598;stroke-width:0.7254;stroke-miterlimit:10;" d="M19.059,23.778c0,0,3.073-1.625,20.516-1.625
	s19.789,1.732,19.789,1.732"/>
<path style="fill:#FFFFFF;stroke:#000000;stroke-width:0.935;stroke-linecap:round;stroke-linejoin:round;stroke-miterlimit:10;" d="
	M76.739,64.65c0.662,1.585-0.088,3.403-1.673,4.064l0,0c-1.585,0.659-3.406-0.088-4.066-1.671l-8.382-20.072l0.138-7.737
	l5.604,5.345L76.739,64.65z"/>
<path style="fill:#FFFFFF;stroke:#000000;stroke-width:0.935;stroke-linecap:round;stroke-linejoin:round;stroke-miterlimit:10;" d="
	M71.054,73.047c-0.441,1.659-2.147,2.644-3.807,2.205l0,0c-1.66-0.441-2.646-2.145-2.205-3.802l5.604-21.016l4.831-6.049
	l1.181,7.648L71.054,73.047z"/>
<g>
</g>
<g>
</g>
<g>
</g>
<g>
</g>
<g>
</g>
<g>
</g>
<g>
</g>
<g>
</g>
<g>
</g>
<g>
</g>
<g>
</g>
<g>
</g>
<g>
</g>
<g>
</g>
<g>
</g>
</svg>
