<?xml version="1.0" encoding="iso-8859-1"?>
<!-- Generator: Adobe Illustrator 16.0.4, SVG Export Plug-In . SVG Version: 6.00 Build 0)  -->
<!DOCTYPE svg PUBLIC "-//W3C//DTD SVG 1.1//EN" "http://www.w3.org/Graphics/SVG/1.1/DTD/svg11.dtd">
<svg version="1.1" id="Layer_1" xmlns="http://www.w3.org/2000/svg" xmlns:xlink="http://www.w3.org/1999/xlink" x="0px" y="0px"
	 width="80px" height="80px" viewBox="0 0 80 80" style="enable-background:new 0 0 80 80;" xml:space="preserve">
<rect style="fill:none;" width="80" height="80"/>
<path style="fill:#FFFFFF;" d="M69.303,22.932C65.354,19.218,58.842,12.79,58.842,12.79c-0.646-1.15-11.15-4.814-11.15-4.814
	L33.878,7.328c0,0-11.267,4.829-11.75,5.291c-2,2.072-11.372,10.544-11.372,10.544l2.323,21.814l10.638-10.22
	c2.971,23.616-1.479,34.472-1.479,34.472s2.865,5.079,18.701,5.079c15.837,0,18.145-5.079,18.145-5.079
	c0-5.603-5.722-16.164-2.771-33.226c0,0,6.253,6.654,9.739,10.367L69.303,22.932z"/>
<polygon style="opacity:0.35;" points="13.852,44.563 15.597,46.555 24.347,38.336 23.718,34.929 "/>
<path style="opacity:0.35;" d="M26.289,71.809l-0.922,1.062c0,0,2.864,5.079,18.703,5.079c15.835,0,18.631-6.948,18.631-6.948
	s-2.885-7.366-4.721-19.218c-0.828-5.354-0.145-9.952,0.356-9.214c0.593,0.871,3.76,2.986,5.38,4.854
	c0.872-1.992,1.294-1.896,1.123-2.117c-2.619-3.361-8.278-8.165-8.371-9.229c-1.34,9.036-1.312,17.937-1.142,16.264
	c-0.614-1.149,3.404,16.526,3.404,16.526s-1.622,4.739-13.572,5.119c-11.953,0.378-16.733-0.948-16.733-0.948"/>
<path style="fill:#FFFFFF;stroke:#000000;stroke-width:0.8081;stroke-miterlimit:10;" d="M59.01,40.644"/>
<path style="fill:#FFFFFF;stroke:#000000;stroke-width:0.8081;stroke-miterlimit:10;" d="M69.303,23.104
	c-3.949-3.713-10.461-10.142-10.461-10.142c-0.646-1.15-11.15-4.814-11.15-4.814L33.878,7.5c0,0-11.267,4.829-11.75,5.291
	c-2,2.072-11.372,10.544-11.372,10.544"/>
<path style="fill:none;stroke:#000000;stroke-width:0.8081;stroke-miterlimit:10;" d="M13.08,45.149l10.638-10.221
	c2.971,23.615-1.479,34.473-1.479,34.473s2.865,5.078,18.701,5.078c15.837,0,18.145-5.078,18.145-5.078
	c0-5.603-5.722-16.164-2.771-33.227c0,0,6.253,6.655,9.739,10.367"/>
<path style="fill:#FFFFFF;stroke:#000000;stroke-width:0.8081;stroke-miterlimit:10;" d="M40.461,14.374l-8.168,2.079
	c0,0-1.527-3.798-0.938-8.148l1.314-3.885c1.939-1.935,8.071-1.548,8.789-1.548c0.719,0,5.168-0.059,6.261,1.519
	c1.09,1.578,1.545,4.488,1.545,4.488s-0.399,7.688-1.189,7.574C46.168,16.182,40.461,14.374,40.461,14.374z"/>
<path style="fill:#FFFFFF;stroke:#000000;stroke-width:0.8081;stroke-miterlimit:10;" d="M40.461,14.374c0,0-5.465-4.13-7.792-9.954
	"/>
<path style="fill:#FFFFFF;stroke:#000000;stroke-width:0.8081;stroke-miterlimit:10;" d="M40.461,14.374
	c4.699-3.47,7.103-10.169,7.103-10.169"/>
<path style="fill:none;stroke:#000000;stroke-width:0.8081;stroke-miterlimit:10;" d="M22.531,23.839c0,0,1.608,10.643,1.657,15.459
	"/>
<path style="fill:none;stroke:#000000;stroke-width:0.8081;stroke-miterlimit:10;" d="M55.535,46.272
	C55.238,38.705,57.17,24.31,57.17,24.31"/>
<g>
</g>
<g>
</g>
<g>
</g>
<g>
</g>
<g>
</g>
<g>
</g>
<g>
</g>
<g>
</g>
<g>
</g>
<g>
</g>
<g>
</g>
<g>
</g>
<g>
</g>
<g>
</g>
<g>
</g>
</svg>
